{
  "data": [
    {
      "id": 1,
      "name": "Hilton Waters DDS",
      "text": null,
      "user": {
        "id": 1,
        "name": "aaa"
      },
      "category": {
        "id": 6,
        "name": "Mia Weber"
      },
      "created_at": "2020-04-03T06:51:29.000000Z",
      "updated_at": "2020-04-03T06:51:29.000000Z"
    },
    {
      "id": 2,
      "name": "Francis Quigley",
      "text": null,
      "user": {
        "id": 1,
        "name": "aaa"
      },
      "category": {
        "id": 4,
        "name": "Dr."
      },
      "created_at": "2020-04-03T06:51:29.000000Z",
      "updated_at": "2020-04-03T06:51:29.000000Z"
    },
    {
      "id": 3,
      "name": "Miss Elda Bernhard",
      "text": null,
      "user": {
        "id": 2,
        "name": "bbb"
      },
      "category": {
        "id": 7,
        "name": "Dashawn Friesen II"
      },
      "created_at": "2020-04-03T06:51:29.000000Z",
      "updated_at": "2020-04-03T06:51:29.000000Z"
    },
    {
      "id": 4,
      "name": "Mr. Garrett Koelpin DVM",
      "text": null,
      "user": {
        "id": 1,
        "name": "aaa"
      },
      "category": {
        "id": 3,
        "name": "Miss"
      },
      "created_at": "2020-04-03T06:51:29.000000Z",
      "updated_at": "2020-04-03T06:51:29.000000Z"
    },
    {
      "id": 5,
      "name": "Grant Ziemann",
      "text": null,
      "user": {
        "id": 2,
        "name": "bbb"
      },
      "category": {
        "id": 4,
        "name": "Dr."
      },
      "created_at": "2020-04-03T06:51:29.000000Z",
      "updated_at": "2020-04-03T06:51:29.000000Z"
    }
  ],
  "links": {
    "first": "http:\/\/localhost:8000\/api\/auth\/posts?page=1",
    "last": "http:\/\/localhost:8000\/api\/auth\/posts?page=2",
    "prev": null,
    "next": "http:\/\/localhost:8000\/api\/auth\/posts?page=2"
  },
  "meta": {
    "current_page": 1,
    "from": 1,
    "last_page": 2,
    "path": "http:\/\/localhost:8000\/api\/auth\/posts",
    "per_page": 5,
    "to": 5,
    "total": 10
  }
}